# Fdb version 3
["bibtex thesis"] 1557083164 "thesis.aux" "thesis.bbl" "thesis" 1557083535
  "./model5-names.bst" 1533739950 29756 44c06870664ad6364bb4e42919904924 ""
  "thesis.aux" 1557083533 67090 eca4857d55947cd93e33a98e47fe32d2 ""
  "thesis.bcf" 0 -1 0 ""
  "thesis.bib" 1552860143 392222 ec85eaa67790409c3eed890188be1e14 ""
  (generated)
  "thesis.blg"
  "thesis.bbl"
["cusdep glo gls thesis"] 1557083116 "thesis.glo" "thesis.gls" "thesis" 1557083535
  "thesis.glo" 1557083533 18021 dea7e2aeb87ea0c45d542ee6f6cb5667 ""
  (generated)
  "thesis.gls"
["pdflatex"] 1557083517 "thesis.tex" "thesis.pdf" "thesis" 1557083535
  "/usr/local/texlive/2014/texmf-dist/fonts/enc/dvips/cm-super/cm-super-ts1.enc" 1136849721 2900 1537cc8184ad1792082cd229ecc269f4 ""
  "/usr/local/texlive/2014/texmf-dist/fonts/map/fontname/texfonts.map" 1272929888 3287 e6b82fe08f5336d4d5ebc73fb1152e87 ""
  "/usr/local/texlive/2014/texmf-dist/fonts/tfm/jknappen/ec/tcrm0900.tfm" 1136768653 1536 c4f439db76ef96a9c53bc437f35ffe20 ""
  "/usr/local/texlive/2014/texmf-dist/fonts/tfm/public/amsfonts/cmextra/cmbsy5.tfm" 1246382020 1120 1e8878807317373affa7f7bba4cf2f6a ""
  "/usr/local/texlive/2014/texmf-dist/fonts/tfm/public/amsfonts/cmextra/cmbsy6.tfm" 1246382020 1124 14ccf5552bc7f77ca02a8a402bea8bfb ""
  "/usr/local/texlive/2014/texmf-dist/fonts/tfm/public/amsfonts/cmextra/cmbsy7.tfm" 1246382020 1120 7f9f170e8aa57527ad6c49feafd45d54 ""
  "/usr/local/texlive/2014/texmf-dist/fonts/tfm/public/amsfonts/cmextra/cmbsy8.tfm" 1246382020 1120 200be8b775682cdf80acad4be5ef57e4 ""
  "/usr/local/texlive/2014/texmf-dist/fonts/tfm/public/amsfonts/cmextra/cmbsy9.tfm" 1246382020 1112 cbc11b646ccc26599775160605aaee3a ""
  "/usr/local/texlive/2014/texmf-dist/fonts/tfm/public/amsfonts/cmextra/cmex7.tfm" 1246382020 1004 54797486969f23fa377b128694d548df ""
  "/usr/local/texlive/2014/texmf-dist/fonts/tfm/public/amsfonts/cmextra/cmex8.tfm" 1246382020 988 bdf658c3bfc2d96d3c8b02cfc1c94c20 ""
  "/usr/local/texlive/2014/texmf-dist/fonts/tfm/public/amsfonts/cmextra/cmex9.tfm" 1246382020 996 a18840b13b499c08ac2de96a99eda4bc ""
  "/usr/local/texlive/2014/texmf-dist/fonts/tfm/public/amsfonts/cmextra/cmmib5.tfm" 1246382020 1496 c79f6914c6d39ffb3759967363d1be79 ""
  "/usr/local/texlive/2014/texmf-dist/fonts/tfm/public/amsfonts/cmextra/cmmib6.tfm" 1246382020 1516 a3bf6a5e7ec4401b1f52092dfaaed242 ""
  "/usr/local/texlive/2014/texmf-dist/fonts/tfm/public/amsfonts/cmextra/cmmib7.tfm" 1246382020 1508 6e807ff901c35a5f1fde0ca275533df8 ""
  "/usr/local/texlive/2014/texmf-dist/fonts/tfm/public/amsfonts/cmextra/cmmib8.tfm" 1246382020 1528 dab402b9d3774ca98baa037071cee7ae ""
  "/usr/local/texlive/2014/texmf-dist/fonts/tfm/public/amsfonts/cmextra/cmmib9.tfm" 1246382020 1528 159d57adcba064aab4277245c826577d ""
  "/usr/local/texlive/2014/texmf-dist/fonts/tfm/public/amsfonts/symbols/msam10.tfm" 1246382020 916 f87d7c45f9c908e672703b83b72241a3 ""
  "/usr/local/texlive/2014/texmf-dist/fonts/tfm/public/amsfonts/symbols/msam5.tfm" 1246382020 924 9904cf1d39e9767e7a3622f2a125a565 ""
  "/usr/local/texlive/2014/texmf-dist/fonts/tfm/public/amsfonts/symbols/msam7.tfm" 1246382020 928 2dc8d444221b7a635bb58038579b861a ""
  "/usr/local/texlive/2014/texmf-dist/fonts/tfm/public/amsfonts/symbols/msbm10.tfm" 1246382020 908 2921f8a10601f252058503cc6570e581 ""
  "/usr/local/texlive/2014/texmf-dist/fonts/tfm/public/amsfonts/symbols/msbm5.tfm" 1246382020 940 75ac932a52f80982a9f8ea75d03a34cf ""
  "/usr/local/texlive/2014/texmf-dist/fonts/tfm/public/amsfonts/symbols/msbm7.tfm" 1246382020 940 228d6584342e91276bf566bcf9716b83 ""
  "/usr/local/texlive/2014/texmf-dist/fonts/tfm/public/cm/cmbsy10.tfm" 1136768653 1116 4e6ba9d7914baa6482fd69f67d126380 ""
  "/usr/local/texlive/2014/texmf-dist/fonts/tfm/public/cm/cmbx10.tfm" 1136768653 1328 c834bbb027764024c09d3d2bf908b5f0 ""
  "/usr/local/texlive/2014/texmf-dist/fonts/tfm/public/cm/cmbx12.tfm" 1136768653 1324 c910af8c371558dc20f2d7822f66fe64 ""
  "/usr/local/texlive/2014/texmf-dist/fonts/tfm/public/cm/cmbx5.tfm" 1136768653 1332 f817c21a1ba54560425663374f1b651a ""
  "/usr/local/texlive/2014/texmf-dist/fonts/tfm/public/cm/cmbx6.tfm" 1136768653 1344 8a0be4fe4d376203000810ad4dc81558 ""
  "/usr/local/texlive/2014/texmf-dist/fonts/tfm/public/cm/cmbx7.tfm" 1136768653 1336 3125ccb448c1a09074e3aa4a9832f130 ""
  "/usr/local/texlive/2014/texmf-dist/fonts/tfm/public/cm/cmbx8.tfm" 1136768653 1332 1fde11373e221473104d6cc5993f046e ""
  "/usr/local/texlive/2014/texmf-dist/fonts/tfm/public/cm/cmbx9.tfm" 1136768653 1328 5442e22a7072966dbaf88ca900acf3f0 ""
  "/usr/local/texlive/2014/texmf-dist/fonts/tfm/public/cm/cmbxti10.tfm" 1136768653 1532 9162035f4e7176612125649e348e2195 ""
  "/usr/local/texlive/2014/texmf-dist/fonts/tfm/public/cm/cmcsc10.tfm" 1136768653 1300 63a6111ee6274895728663cf4b4e7e81 ""
  "/usr/local/texlive/2014/texmf-dist/fonts/tfm/public/cm/cmex10.tfm" 1136768653 992 662f679a0b3d2d53c1b94050fdaa3f50 ""
  "/usr/local/texlive/2014/texmf-dist/fonts/tfm/public/cm/cmmi10.tfm" 1136768653 1528 abec98dbc43e172678c11b3b9031252a ""
  "/usr/local/texlive/2014/texmf-dist/fonts/tfm/public/cm/cmmi6.tfm" 1136768653 1512 f21f83efb36853c0b70002322c1ab3ad ""
  "/usr/local/texlive/2014/texmf-dist/fonts/tfm/public/cm/cmmi8.tfm" 1136768653 1520 eccf95517727cb11801f4f1aee3a21b4 ""
  "/usr/local/texlive/2014/texmf-dist/fonts/tfm/public/cm/cmmi9.tfm" 1136768653 1524 d89e2d087a9828407a196f428428ef4a ""
  "/usr/local/texlive/2014/texmf-dist/fonts/tfm/public/cm/cmmib10.tfm" 1136768653 1524 554068197b70979a55370e6c6495f441 ""
  "/usr/local/texlive/2014/texmf-dist/fonts/tfm/public/cm/cmr10.tfm" 1136768653 1296 45809c5a464d5f32c8f98ba97c1bb47f ""
  "/usr/local/texlive/2014/texmf-dist/fonts/tfm/public/cm/cmr12.tfm" 1136768653 1288 655e228510b4c2a1abe905c368440826 ""
  "/usr/local/texlive/2014/texmf-dist/fonts/tfm/public/cm/cmr17.tfm" 1136768653 1292 296a67155bdbfc32aa9c636f21e91433 ""
  "/usr/local/texlive/2014/texmf-dist/fonts/tfm/public/cm/cmr6.tfm" 1136768653 1300 b62933e007d01cfd073f79b963c01526 ""
  "/usr/local/texlive/2014/texmf-dist/fonts/tfm/public/cm/cmr8.tfm" 1136768653 1292 21c1c5bfeaebccffdb478fd231a0997d ""
  "/usr/local/texlive/2014/texmf-dist/fonts/tfm/public/cm/cmr9.tfm" 1136768653 1292 6b21b9c2c7bebb38aa2273f7ca0fb3af ""
  "/usr/local/texlive/2014/texmf-dist/fonts/tfm/public/cm/cmss10.tfm" 1136768653 1316 b636689f1933f24d1294acdf6041daaa ""
  "/usr/local/texlive/2014/texmf-dist/fonts/tfm/public/cm/cmss8.tfm" 1136768653 1296 d77f431d10d47c8ea2cc18cf45346274 ""
  "/usr/local/texlive/2014/texmf-dist/fonts/tfm/public/cm/cmss9.tfm" 1136768653 1320 49357c421c0d469f88b867dd0c3d10e8 ""
  "/usr/local/texlive/2014/texmf-dist/fonts/tfm/public/cm/cmsy10.tfm" 1136768653 1124 6c73e740cf17375f03eec0ee63599741 ""
  "/usr/local/texlive/2014/texmf-dist/fonts/tfm/public/cm/cmsy6.tfm" 1136768653 1116 933a60c408fc0a863a92debe84b2d294 ""
  "/usr/local/texlive/2014/texmf-dist/fonts/tfm/public/cm/cmsy8.tfm" 1136768653 1120 8b7d695260f3cff42e636090a8002094 ""
  "/usr/local/texlive/2014/texmf-dist/fonts/tfm/public/cm/cmsy9.tfm" 1136768653 1116 25a7bf822c58caf309a702ef79f4afbb ""
  "/usr/local/texlive/2014/texmf-dist/fonts/tfm/public/cm/cmti10.tfm" 1136768653 1480 aa8e34af0eb6a2941b776984cf1dfdc4 ""
  "/usr/local/texlive/2014/texmf-dist/fonts/tfm/public/cm/cmti7.tfm" 1136768653 1492 86331993fe614793f5e7e755835c31c5 ""
  "/usr/local/texlive/2014/texmf-dist/fonts/tfm/public/cm/cmti8.tfm" 1136768653 1504 1747189e0441d1c18f3ea56fafc1c480 ""
  "/usr/local/texlive/2014/texmf-dist/fonts/tfm/public/cm/cmti9.tfm" 1136768653 1476 cccc6cc4935c18ec3d5623b77ecb8b74 ""
  "/usr/local/texlive/2014/texmf-dist/fonts/tfm/public/cm/cmtt10.tfm" 1136768653 768 1321e9409b4137d6fb428ac9dc956269 ""
  "/usr/local/texlive/2014/texmf-dist/fonts/tfm/public/cm/cmtt8.tfm" 1136768653 768 d7b9a2629a0c353102ad947dc9221d49 ""
  "/usr/local/texlive/2014/texmf-dist/fonts/tfm/public/cm/cmtt9.tfm" 1136768653 764 c98a2af25c99b73a368cf7336e255190 ""
  "/usr/local/texlive/2014/texmf-dist/fonts/type1/public/amsfonts/cm/cmbx10.pfb" 1248133631 34811 78b52f49e893bcba91bd7581cdc144c0 ""
  "/usr/local/texlive/2014/texmf-dist/fonts/type1/public/amsfonts/cm/cmbx12.pfb" 1248133631 32080 340ef9bf63678554ee606688e7b5339d ""
  "/usr/local/texlive/2014/texmf-dist/fonts/type1/public/amsfonts/cm/cmbx8.pfb" 1248133631 32166 b0c356b15f19587482a9217ce1d8fa67 ""
  "/usr/local/texlive/2014/texmf-dist/fonts/type1/public/amsfonts/cm/cmbx9.pfb" 1248133631 32298 c6d25bb16d1eac01ebdc6d7084126a1e ""
  "/usr/local/texlive/2014/texmf-dist/fonts/type1/public/amsfonts/cm/cmbxti10.pfb" 1248133631 36554 b67dc2cfa451409e100b3fcf5f506509 ""
  "/usr/local/texlive/2014/texmf-dist/fonts/type1/public/amsfonts/cm/cmcsc10.pfb" 1248133631 32001 6aeea3afe875097b1eb0da29acd61e28 ""
  "/usr/local/texlive/2014/texmf-dist/fonts/type1/public/amsfonts/cm/cmex10.pfb" 1248133631 30251 6afa5cb1d0204815a708a080681d4674 ""
  "/usr/local/texlive/2014/texmf-dist/fonts/type1/public/amsfonts/cm/cmmi10.pfb" 1248133631 36299 5f9df58c2139e7edcf37c8fca4bd384d ""
  "/usr/local/texlive/2014/texmf-dist/fonts/type1/public/amsfonts/cm/cmmi5.pfb" 1248133631 37912 77d683123f92148345f3fc36a38d9ab1 ""
  "/usr/local/texlive/2014/texmf-dist/fonts/type1/public/amsfonts/cm/cmmi6.pfb" 1248133631 37166 8ab3487cbe3ab49ebce74c29ea2418db ""
  "/usr/local/texlive/2014/texmf-dist/fonts/type1/public/amsfonts/cm/cmmi8.pfb" 1248133631 35469 70d41d2b9ea31d5d813066df7c99281c ""
  "/usr/local/texlive/2014/texmf-dist/fonts/type1/public/amsfonts/cm/cmmi9.pfb" 1248133631 36094 798f80770b3b148ceedd006d487db67c ""
  "/usr/local/texlive/2014/texmf-dist/fonts/type1/public/amsfonts/cm/cmmib10.pfb" 1248133631 36912 b448ef9ad9d7228ec3c6e71005136d55 ""
  "/usr/local/texlive/2014/texmf-dist/fonts/type1/public/amsfonts/cm/cmr10.pfb" 1248133631 35752 024fb6c41858982481f6968b5fc26508 ""
  "/usr/local/texlive/2014/texmf-dist/fonts/type1/public/amsfonts/cm/cmr6.pfb" 1248133631 32734 69e00a6b65cedb993666e42eedb3d48f ""
  "/usr/local/texlive/2014/texmf-dist/fonts/type1/public/amsfonts/cm/cmr7.pfb" 1248133631 32762 224316ccc9ad3ca0423a14971cfa7fc1 ""
  "/usr/local/texlive/2014/texmf-dist/fonts/type1/public/amsfonts/cm/cmr8.pfb" 1248133631 32726 0a1aea6fcd6468ee2cf64d891f5c43c8 ""
  "/usr/local/texlive/2014/texmf-dist/fonts/type1/public/amsfonts/cm/cmr9.pfb" 1248133631 33993 9b89b85fd2d9df0482bd47194d1d3bf3 ""
  "/usr/local/texlive/2014/texmf-dist/fonts/type1/public/amsfonts/cm/cmsy10.pfb" 1248133631 32569 5e5ddc8df908dea60932f3c484a54c0d ""
  "/usr/local/texlive/2014/texmf-dist/fonts/type1/public/amsfonts/cm/cmsy8.pfb" 1248133631 32626 4f5c1b83753b1dd3a97d1b399a005b4b ""
  "/usr/local/texlive/2014/texmf-dist/fonts/type1/public/amsfonts/cm/cmsy9.pfb" 1248133631 32442 c975af247b6702f7ca0c299af3616b80 ""
  "/usr/local/texlive/2014/texmf-dist/fonts/type1/public/amsfonts/cm/cmti10.pfb" 1248133631 37944 359e864bd06cde3b1cf57bb20757fb06 ""
  "/usr/local/texlive/2014/texmf-dist/fonts/type1/public/amsfonts/cm/cmti7.pfb" 1248133631 36607 d654cb3f2bc54f57509240071db3bffa ""
  "/usr/local/texlive/2014/texmf-dist/fonts/type1/public/amsfonts/cm/cmti8.pfb" 1248133631 35660 fb24af7afbadb71801619f1415838111 ""
  "/usr/local/texlive/2014/texmf-dist/fonts/type1/public/amsfonts/cm/cmti9.pfb" 1248133631 36310 f5ddc6715cc60deb16d9db5ded6a9391 ""
  "/usr/local/texlive/2014/texmf-dist/fonts/type1/public/amsfonts/cm/cmtt9.pfb" 1248133631 29078 718ea4567ceff944262b0f5b0800e1d9 ""
  "/usr/local/texlive/2014/texmf-dist/fonts/type1/public/amsfonts/cmextra/cmex8.pfb" 1248133631 30273 87a352d78b6810ae5cfdc68d2fb827b2 ""
  "/usr/local/texlive/2014/texmf-dist/fonts/type1/public/amsfonts/cmextra/cmex9.pfb" 1248133631 30212 b6aafa449db0097a6b9b890f66741063 ""
  "/usr/local/texlive/2014/texmf-dist/fonts/type1/public/amsfonts/cmextra/cmmib9.pfb" 1248133631 36510 24bd6e95867d9b5c2691bf9144a22cda ""
  "/usr/local/texlive/2014/texmf-dist/fonts/type1/public/amsfonts/symbols/msam7.pfb" 1248133631 33366 60462f3d16c3d0f024f1f856e64b09cd ""
  "/usr/local/texlive/2014/texmf-dist/fonts/type1/public/cm-super/sfrm0900.pfb" 1215737283 149037 995a6f1e12c1d647b99b1cf55db78699 ""
  "/usr/local/texlive/2014/texmf-dist/tex/context/base/supp-pdf.mkii" 1337017135 71627 94eb9990bed73c364d7f53f960cc8c5b ""
  "/usr/local/texlive/2014/texmf-dist/tex/generic/babel-english/english.ldf" 1367878877 6963 2e0cb3d93aa64508bdb0db58ae900d97 ""
  "/usr/local/texlive/2014/texmf-dist/tex/generic/babel-german/german.ldf" 1387148483 2194 e206e6fd1fccbd5a7149dfab5a5abbaa ""
  "/usr/local/texlive/2014/texmf-dist/tex/generic/babel-german/germanb.ldf" 1387148483 7940 e7e860062f1a7d8d0ac558aa7bbe208f ""
  "/usr/local/texlive/2014/texmf-dist/tex/generic/babel/babel.def" 1395780385 49536 e1475dd245ff2196764ba5b91ac63714 ""
  "/usr/local/texlive/2014/texmf-dist/tex/generic/babel/babel.sty" 1395780385 13162 52453613e672419375f5bc44def13451 ""
  "/usr/local/texlive/2014/texmf-dist/tex/generic/ifxetex/ifxetex.sty" 1284331290 1458 43ab4710dc82f3edeabecd0d099626b2 ""
  "/usr/local/texlive/2014/texmf-dist/tex/generic/oberdiek/etexcmds.sty" 1335995445 7612 c47308d923ec19888707b0f1792b326a ""
  "/usr/local/texlive/2014/texmf-dist/tex/generic/oberdiek/gettitlestring.sty" 1303254447 8237 52810bdb4db2270e717422560a104aea ""
  "/usr/local/texlive/2014/texmf-dist/tex/generic/oberdiek/hobsub-generic.sty" 1338332114 189108 8b3553a56c83ff61acecb36b75d817e2 ""
  "/usr/local/texlive/2014/texmf-dist/tex/generic/oberdiek/hobsub-hyperref.sty" 1338332114 70752 45fa392800e07da61fa13446ad46b34d ""
  "/usr/local/texlive/2014/texmf-dist/tex/generic/oberdiek/ifluatex.sty" 1303254447 7324 11d14f318d865f420e692d4e6c9c18c3 ""
  "/usr/local/texlive/2014/texmf-dist/tex/generic/oberdiek/infwarerr.sty" 1335995445 8253 3bdedc8409aa5d290a2339be6f09af03 ""
  "/usr/local/texlive/2014/texmf-dist/tex/generic/oberdiek/kvsetkeys.sty" 1335995445 14040 8de9f47fabc4ca3bd69b6d795e32751c ""
  "/usr/local/texlive/2014/texmf-dist/tex/generic/oberdiek/ltxcmds.sty" 1335995445 18425 775b341047ce304520cc7c11ca41392e ""
  "/usr/local/texlive/2014/texmf-dist/tex/generic/xkeyval/keyval.tex" 1400019268 2697 5f0c19beda2c3c46551f6a985c79a514 ""
  "/usr/local/texlive/2014/texmf-dist/tex/generic/xkeyval/xkeyval.tex" 1400019268 25272 8b573a5710283cab74b7f6c5ec6592ec ""
  "/usr/local/texlive/2014/texmf-dist/tex/latex/algorithmicx/algorithmicx.sty" 1160617237 26750 ce139c05a983e19ddca355b43e29c395 ""
  "/usr/local/texlive/2014/texmf-dist/tex/latex/algorithmicx/algpseudocode.sty" 1160617237 3457 d9077efe6b74c5a094199256af8d7d9a ""
  "/usr/local/texlive/2014/texmf-dist/tex/latex/algorithms/algorithm.sty" 1251330371 3249 15763257e50278eef5db1952ccde229c ""
  "/usr/local/texlive/2014/texmf-dist/tex/latex/amscls/amsthm.sty" 1361575838 13294 f63af559496acbb4ffecc2de353745eb ""
  "/usr/local/texlive/2014/texmf-dist/tex/latex/amsfonts/amsfonts.sty" 1359763108 5949 3f3fd50a8cc94c3d4cbf4fc66cd3df1c ""
  "/usr/local/texlive/2014/texmf-dist/tex/latex/amsfonts/amssymb.sty" 1359763108 13829 94730e64147574077f8ecfea9bb69af4 ""
  "/usr/local/texlive/2014/texmf-dist/tex/latex/amsfonts/umsa.fd" 1359763108 961 6518c6525a34feb5e8250ffa91731cff ""
  "/usr/local/texlive/2014/texmf-dist/tex/latex/amsfonts/umsb.fd" 1359763108 961 d02606146ba5601b5645f987c92e6193 ""
  "/usr/local/texlive/2014/texmf-dist/tex/latex/amsmath/amsbsy.sty" 1362954379 2412 2d98314dc5be38f455f8890deeb2d091 ""
  "/usr/local/texlive/2014/texmf-dist/tex/latex/amsmath/amsgen.sty" 1362954379 4357 ad30ad08920902fc9b38caf35a3b0496 ""
  "/usr/local/texlive/2014/texmf-dist/tex/latex/amsmath/amsmath.sty" 1362954379 79178 b2e326c351e876df0e5e23df2e02441b ""
  "/usr/local/texlive/2014/texmf-dist/tex/latex/amsmath/amsopn.sty" 1362954379 4082 502152465aedb8f6a3c4b0b7c0fa8ae5 ""
  "/usr/local/texlive/2014/texmf-dist/tex/latex/amsmath/amstext.sty" 1362954379 2637 846ebe982d3549c7ede7ce135456f54a ""
  "/usr/local/texlive/2014/texmf-dist/tex/latex/appendix/appendix.sty" 1252539595 8526 d0d9b5e2dd0c996c69c3bd05eb25b943 ""
  "/usr/local/texlive/2014/texmf-dist/tex/latex/base/ifthen.sty" 1399675188 4947 22c4b902063e8ce2efcc2a8495ecb800 ""
  "/usr/local/texlive/2014/texmf-dist/tex/latex/base/report.cls" 1399675188 23555 fd5849e9decad6551d2acabe39b35eb4 ""
  "/usr/local/texlive/2014/texmf-dist/tex/latex/base/size11.clo" 1399675188 8983 e08a9a7009d9a8f8c6507333f96e336e ""
  "/usr/local/texlive/2014/texmf-dist/tex/latex/base/ts1cmr.fd" 1399675188 2005 93bd6bd567069079fb8ff3cfd3ec04bb ""
  "/usr/local/texlive/2014/texmf-dist/tex/latex/beamer/translator/dicts/translator-basic-dictionary/translator-basic-dictionary-English.dict" 1279125320 3435 0a4d096dde3f8fe682c2aedd33b8137d ""
  "/usr/local/texlive/2014/texmf-dist/tex/latex/beamer/translator/translator-language-mappings.tex" 1338588496 5067 f1bb98f63e0761f897f48a159127fbb6 ""
  "/usr/local/texlive/2014/texmf-dist/tex/latex/beamer/translator/translator.sty" 1356734651 3824 9ccc2efa439cf13750315a0f20d4f691 ""
  "/usr/local/texlive/2014/texmf-dist/tex/latex/booktabs/booktabs.sty" 1211777752 6375 989ecfb545a13610facc71ae7e40ced1 ""
  "/usr/local/texlive/2014/texmf-dist/tex/latex/caption/caption.sty" 1368312746 65148 c61accbd2b9a5316d9be0887ec48d722 ""
  "/usr/local/texlive/2014/texmf-dist/tex/latex/caption/caption3.sty" 1368312746 62748 b02c0dc118f5f35146d37cec569e83b1 ""
  "/usr/local/texlive/2014/texmf-dist/tex/latex/caption/ltcaption.sty" 1360019375 6681 79588c96d214097730f021722fa0d151 ""
  "/usr/local/texlive/2014/texmf-dist/tex/latex/caption/subcaption.sty" 1360019375 4351 ee16013c18d101f9ecb20e53efde17b4 ""
  "/usr/local/texlive/2014/texmf-dist/tex/latex/cleveref/cleveref.sty" 1388446545 339711 1f0025fb7b81e674af7c859d9d323705 ""
  "/usr/local/texlive/2014/texmf-dist/tex/latex/csquotes/csquotes.cfg" 1319590412 7132 70a6a97cd9f45c3b56a0e99d1f25f006 ""
  "/usr/local/texlive/2014/texmf-dist/tex/latex/csquotes/csquotes.def" 1319590412 16271 3fef670c8e5cd658058a71d688150b02 ""
  "/usr/local/texlive/2014/texmf-dist/tex/latex/csquotes/csquotes.sty" 1319590412 61724 6b317ced9eafeec6e6856b8530b42828 ""
  "/usr/local/texlive/2014/texmf-dist/tex/latex/datatool/datatool-base.sty" 1389997969 74104 eb2a0887f4ed0fe1b7a932604265dae5 ""
  "/usr/local/texlive/2014/texmf-dist/tex/latex/datatool/datatool-fp.sty" 1389997969 3944 d4d8947dafc56b4fa4db4631231712c5 ""
  "/usr/local/texlive/2014/texmf-dist/tex/latex/enumitem/enumitem.sty" 1317339792 42666 6fa770e3485520a6a5f2ea7d259c8f8d ""
  "/usr/local/texlive/2014/texmf-dist/tex/latex/environ/environ.sty" 1399239813 4378 f429f0da968c278653359293040a8f52 ""
  "/usr/local/texlive/2014/texmf-dist/tex/latex/etex-pkg/etex.sty" 1214928088 15274 9f6a2469ac8ebe6168e12b8f32cbe599 ""
  "/usr/local/texlive/2014/texmf-dist/tex/latex/etoolbox/etoolbox.sty" 1294098555 41188 02561c41bb08b479074b6e76f0b7d639 ""
  "/usr/local/texlive/2014/texmf-dist/tex/latex/fancyhdr/fancyhdr.sty" 1160175134 20521 e5d13d98d57bd53d4fed3aa61bd29c86 ""
  "/usr/local/texlive/2014/texmf-dist/tex/latex/float/float.sty" 1137110151 6749 16d2656a1984957e674b149555f1ea1d ""
  "/usr/local/texlive/2014/texmf-dist/tex/latex/fp/defpattern.sty" 1137110169 1081 6a8d78d0e6b2d89334f92fd122c1da99 ""
  "/usr/local/texlive/2014/texmf-dist/tex/latex/fp/fp-addons.sty" 1137110169 1275 fe903646b72b3e877914d78f2db9ddda ""
  "/usr/local/texlive/2014/texmf-dist/tex/latex/fp/fp-basic.sty" 1137110169 29695 b6366b50463dfb367cf560419d0cea8d ""
  "/usr/local/texlive/2014/texmf-dist/tex/latex/fp/fp-eqn.sty" 1137110169 11336 afed7aa5dbc4bf246950282b95e522c2 ""
  "/usr/local/texlive/2014/texmf-dist/tex/latex/fp/fp-eval.sty" 1137110169 6220 eeeffd00d1235e73c380c6dc9f30ac43 ""
  "/usr/local/texlive/2014/texmf-dist/tex/latex/fp/fp-exp.sty" 1137110169 16964 7ba2d4a3882e46a0429106267976ad21 ""
  "/usr/local/texlive/2014/texmf-dist/tex/latex/fp/fp-pas.sty" 1137110169 3006 6fd5da0dc83ba1d19525f1fb08dca7df ""
  "/usr/local/texlive/2014/texmf-dist/tex/latex/fp/fp-random.sty" 1137110169 3702 6e54ac63212901d59e6ea2a32b0a7689 ""
  "/usr/local/texlive/2014/texmf-dist/tex/latex/fp/fp-snap.sty" 1137110169 6519 c1e5d3c6aed32ba782f756d79578d87b ""
  "/usr/local/texlive/2014/texmf-dist/tex/latex/fp/fp-trigo.sty" 1137110169 28969 342a2de338e342de95d2551557e50f06 ""
  "/usr/local/texlive/2014/texmf-dist/tex/latex/fp/fp-upn.sty" 1137110169 7154 78a835a719e27a484e63f1f98ba4df11 ""
  "/usr/local/texlive/2014/texmf-dist/tex/latex/fp/fp.sty" 1137110169 983 d84df22b060ce125f89a32c403dcab31 ""
  "/usr/local/texlive/2014/texmf-dist/tex/latex/glossaries/base/glossaries-compatible-307.sty" 1394238957 18345 ac3f7138237438ee587d890f51530260 ""
  "/usr/local/texlive/2014/texmf-dist/tex/latex/glossaries/base/glossaries.sty" 1396651045 218653 f3eb9b2761f69f5b5dd6c85facb1611d ""
  "/usr/local/texlive/2014/texmf-dist/tex/latex/glossaries/base/mfirstuc.sty" 1394238957 5395 6d5b77f2def18121164b755db0cecf57 ""
  "/usr/local/texlive/2014/texmf-dist/tex/latex/glossaries/styles/glossary-hypernav.sty" 1394238957 5187 6fd0b26c17e067f4bc89e0ef04d6df21 ""
  "/usr/local/texlive/2014/texmf-dist/tex/latex/glossaries/styles/glossary-list.sty" 1394238957 5916 bc5f21fbbd66a066a23aacb0d9fc5163 ""
  "/usr/local/texlive/2014/texmf-dist/tex/latex/glossaries/styles/glossary-long.sty" 1394238957 8540 559baea552c22c303dc4459bb3eff732 ""
  "/usr/local/texlive/2014/texmf-dist/tex/latex/glossaries/styles/glossary-super.sty" 1394238957 9567 ef6b1d526fbbc8349ea593a6e5d67b2e ""
  "/usr/local/texlive/2014/texmf-dist/tex/latex/glossaries/styles/glossary-tree.sty" 1394238957 10467 53ebc94daf25324a7e575f65658a1fb2 ""
  "/usr/local/texlive/2014/texmf-dist/tex/latex/graphics/graphics.sty" 1254151804 14183 42a8fc761b806986eef292369afc2988 ""
  "/usr/local/texlive/2014/texmf-dist/tex/latex/graphics/graphicx.sty" 1399675188 7911 bf0a64f89bfb668c239ddf6324bf4afb ""
  "/usr/local/texlive/2014/texmf-dist/tex/latex/graphics/trig.sty" 1156702488 3153 c50e6bd54d2dd3933fc52bcf369bec4a ""
  "/usr/local/texlive/2014/texmf-dist/tex/latex/hyperref/hpdftex.def" 1352416072 51837 247bd8424b3835ef78c236dc1e0b4aef ""
  "/usr/local/texlive/2014/texmf-dist/tex/latex/hyperref/hyperref.sty" 1352416072 231792 5fc9dc7dd667e773a766ecc63bba7f4b ""
  "/usr/local/texlive/2014/texmf-dist/tex/latex/hyperref/nameref.sty" 1351899753 12847 25b617d63258c4f72870c883493a3cf8 ""
  "/usr/local/texlive/2014/texmf-dist/tex/latex/hyperref/pd1enc.def" 1352416072 14005 155ac8fad2e5dd7c2cdd130fabd96633 ""
  "/usr/local/texlive/2014/texmf-dist/tex/latex/hyphenat/hyphenat.sty" 1252025529 5798 0437b031e663035b68539cf7ac7c8eeb ""
  "/usr/local/texlive/2014/texmf-dist/tex/latex/koma-script/tocstyle.sty" 1388099916 31424 20049f42c85392b529cb9b7b5c323dd4 ""
  "/usr/local/texlive/2014/texmf-dist/tex/latex/l3kernel/expl3-code.tex" 1400796003 589597 cef0f6cce5c067eebc83177983c9795f ""
  "/usr/local/texlive/2014/texmf-dist/tex/latex/l3kernel/expl3.sty" 1400796003 9091 cd531ae9ee5b15009f98115826324e39 ""
  "/usr/local/texlive/2014/texmf-dist/tex/latex/l3packages/l3keys2e/l3keys2e.sty" 1399327278 5415 a5030e85d377b48f85581751c273b07d ""
  "/usr/local/texlive/2014/texmf-dist/tex/latex/l3packages/xparse/xparse.sty" 1399327278 56501 3c9d53f139ab519c8408566ed091704d ""
  "/usr/local/texlive/2014/texmf-dist/tex/latex/latexconfig/color.cfg" 1254097189 802 7b8c8d72c24d795ed7720e4dfd29bff3 ""
  "/usr/local/texlive/2014/texmf-dist/tex/latex/latexconfig/epstopdf-sys.cfg" 1279039959 678 4792914a8f45be57bb98413425e4c7af ""
  "/usr/local/texlive/2014/texmf-dist/tex/latex/latexconfig/graphics.cfg" 1278958963 3563 d35e897cae3b8c6848f6677b73370b54 ""
  "/usr/local/texlive/2014/texmf-dist/tex/latex/latexconfig/hyperref.cfg" 1254097189 235 6031e5765137be07eed51a510b2b8fb7 ""
  "/usr/local/texlive/2014/texmf-dist/tex/latex/lineno/lineno.sty" 1159951381 151738 8cd767481920f0eb785302dacfc87057 ""
  "/usr/local/texlive/2014/texmf-dist/tex/latex/multirow/multirow.sty" 1137110401 7374 f7c1f13fc632dd5c9b220a247d233082 ""
  "/usr/local/texlive/2014/texmf-dist/tex/latex/natbib/natbib.sty" 1291685959 45456 1c8843383c0bd05870c45fa0ebea6cc2 ""
  "/usr/local/texlive/2014/texmf-dist/tex/latex/oberdiek/auxhook.sty" 1303254447 3834 707ef09f31d7d2ea47ba89974755dfe0 ""
  "/usr/local/texlive/2014/texmf-dist/tex/latex/oberdiek/epstopdf-base.sty" 1303254447 12029 04d7fdf76e0464c23b5aa3a727952d7c ""
  "/usr/local/texlive/2014/texmf-dist/tex/latex/oberdiek/grfext.sty" 1335995445 7075 bd0c34fbf1ae8fd1debd2a554e41b2d5 ""
  "/usr/local/texlive/2014/texmf-dist/tex/latex/oberdiek/kvoptions.sty" 1335995445 22417 c74ff4af6a1aa2b65d1924020edbbe11 ""
  "/usr/local/texlive/2014/texmf-dist/tex/latex/oberdiek/refcount.sty" 1335995445 9750 2b74db94c22b6c3d9118c296e3660ecc ""
  "/usr/local/texlive/2014/texmf-dist/tex/latex/oberdiek/rerunfilecheck.sty" 1303254447 9581 1158efc648bc09d5064db5703c882159 ""
  "/usr/local/texlive/2014/texmf-dist/tex/latex/pbox/pbox.sty" 1323479130 2092 683723f035c21ec5b384e5c686c4d6ad ""
  "/usr/local/texlive/2014/texmf-dist/tex/latex/pdftex-def/pdftex.def" 1306616590 55368 3c8a0d99822330f2dfabc0dfb09ce897 ""
  "/usr/local/texlive/2014/texmf-dist/tex/latex/placeins/placeins.sty" 1137110565 4087 636308456f60d2b31cbf97867db5708d ""
  "/usr/local/texlive/2014/texmf-dist/tex/latex/rotating/rotating.sty" 1238284825 7131 a49b179ae7108fe42935176733099fc0 ""
  "/usr/local/texlive/2014/texmf-dist/tex/latex/setspace/setspace.sty" 1324344192 22913 a27d7908fc6f0385466454a966a316eb ""
  "/usr/local/texlive/2014/texmf-dist/tex/latex/siunitx/config/siunitx-abbreviations.cfg" 1375485703 4669 c9c40878b7ff419f80043702bb55c751 ""
  "/usr/local/texlive/2014/texmf-dist/tex/latex/siunitx/siunitx.sty" 1375485703 273420 61310749600b8f60614ce10c92be4ae7 ""
  "/usr/local/texlive/2014/texmf-dist/tex/latex/substr/substr.sty" 1258848659 5724 d3505925e87b345f11a5f17d58550dea ""
  "/usr/local/texlive/2014/texmf-dist/tex/latex/supertabular/supertabular.sty" 1137110892 14283 563cabe54cdab0459534c65c66672d04 ""
  "/usr/local/texlive/2014/texmf-dist/tex/latex/tabu/tabu.sty" 1298852510 114961 e56cefaf93c0235eff9664a2490be707 ""
  "/usr/local/texlive/2014/texmf-dist/tex/latex/textcase/textcase.sty" 1137110938 2022 79a2c3efd954daff1698214872b6ca46 ""
  "/usr/local/texlive/2014/texmf-dist/tex/latex/threeparttable/threeparttable.sty" 1267981840 13506 a4e71a27db1a69b6fabada5beebf0844 ""
  "/usr/local/texlive/2014/texmf-dist/tex/latex/threeparttablex/threeparttablex.sty" 1374618576 4806 f47a86719933c0946f57de994330d55b ""
  "/usr/local/texlive/2014/texmf-dist/tex/latex/titlesec/titlesec.sty" 1324083561 37083 54a2e11f0f208916a9976d9e4837d144 ""
  "/usr/local/texlive/2014/texmf-dist/tex/latex/tools/afterpage.sty" 1399675188 3876 01192d67db301b0af55d2ef64e6da1a3 ""
  "/usr/local/texlive/2014/texmf-dist/tex/latex/tools/array.sty" 1399675188 13073 a6e28ede26c83d406e124b12f368174f ""
  "/usr/local/texlive/2014/texmf-dist/tex/latex/tools/bm.sty" 1399675188 11750 368cac70e513c0886fa591ef7d7afab7 ""
  "/usr/local/texlive/2014/texmf-dist/tex/latex/tools/calc.sty" 1399675188 10002 f32f4490d0c87a7854adf544bd459155 ""
  "/usr/local/texlive/2014/texmf-dist/tex/latex/tools/enumerate.sty" 1399675188 3255 42d834dc82171769c16badd22df87021 ""
  "/usr/local/texlive/2014/texmf-dist/tex/latex/tools/longtable.sty" 1399675188 11875 98b91a3f62f8b2871fecd2afa02ea4a3 ""
  "/usr/local/texlive/2014/texmf-dist/tex/latex/tools/verbatim.sty" 1399675188 7052 bd460af66db50ed38511e63136966a44 ""
  "/usr/local/texlive/2014/texmf-dist/tex/latex/tools/xspace.sty" 1399675188 4332 8e29536200879fcf8a590aed89d4bc92 ""
  "/usr/local/texlive/2014/texmf-dist/tex/latex/trimspaces/trimspaces.sty" 1253232110 1380 971a51b00a14503ddf754cab24c3f209 ""
  "/usr/local/texlive/2014/texmf-dist/tex/latex/units/nicefrac.sty" 1137111039 4029 0462ee5ab265cf59dc15a41a3b883101 ""
  "/usr/local/texlive/2014/texmf-dist/tex/latex/url/url.sty" 1388531844 12796 8edb7d69a20b857904dd0ea757c14ec9 ""
  "/usr/local/texlive/2014/texmf-dist/tex/latex/varwidth/varwidth.sty" 1238697683 10894 d359a13923460b2a73d4312d613554c8 ""
  "/usr/local/texlive/2014/texmf-dist/tex/latex/xcolor/xcolor.sty" 1169481954 55224 a43bab84e0ac5e6efcaf9a98bde73a94 ""
  "/usr/local/texlive/2014/texmf-dist/tex/latex/xfor/xfor.sty" 1233902931 2689 44855b72da58344b1c1d9b3087bce6ca ""
  "/usr/local/texlive/2014/texmf-dist/tex/latex/xkeyval/xkeyval.sty" 1400019268 4934 883d3037a740b7daa7022577730aa1f8 ""
  "/usr/local/texlive/2014/texmf-dist/web2c/texmf.cnf" 1398200874 31722 4f52421e59a4b9e910cf18e64c1f2b4a ""
  "/usr/local/texlive/2014/texmf-var/fonts/map/pdftex/updmap/pdftex.map" 1401025944 1445653 26a0aacf3d70032b1ec192e8c7792117 ""
  "/usr/local/texlive/2014/texmf-var/web2c/pdftex/pdflatex.fmt" 1401025990 3832012 904d82bdcc8abf2b1cd296990b82553b ""
  "/usr/local/texlive/2014/texmf.cnf" 1401025936 577 a59edbde8d3a8c549d0eeaab1739e2ff ""
  "Figures/correlation_A.png" 1521728843 296004 13fceaabe6bd2538770b253fb2c155e0 ""
  "Figures/correlation_C.pdf" 1549324864 167832 08a7f187dd1c6e30dd3bc6783bd07fec ""
  "Figures/decision_support.pdf" 1548350074 25434 9db42d6f8c47556ba59e922205d3ee6c ""
  "Figures/hitrate_coverage_features.png" 1534172418 29138 2d328a068704353a161ce93fd6469337 ""
  "Figures/offence_heatmap.png" 1519162363 5568981 1c3bc8788220b8973f70d5688ca47d9a ""
  "Figures/population_heatmap.png" 1549324150 733372 f26ef36c4119aa108beea9bbf1541ebd ""
  "Figures/research_evaluation.pdf" 1548350133 28411 db09da10701117e3285163838ce43902 ""
  "Figures/satellite_image.png" 1549325720 1002815 affbdcf2a872dbc6d9a920cbddb850de ""
  "figures/PGLM_M23.pdf" 1547581674 5062 7ed42af668e85422bd694f90c9b43ca0 ""
  "figures/PGLM_M23_activities.pdf" 1547590081 5538 f1d5fca3666c6ff17a5f52dac096603d ""
  "figures/PGLM_M3_types.pdf" 1549488045 5549 deeb532544763b9ede7b1b85416197e2 ""
  "figures/PGLM_M45.pdf" 1547581678 5129 4ad55679359557640df0fb751270656c ""
  "figures/SF_OD_neighbors.png" 1546889631 1056467 5498df14fcedd5a0f295996ea2591d82 ""
  "figures/SF_checkins_2012.png" 1546889202 112283 05351a01afad51485a365d7346e82de2 ""
  "figures/SF_crimes_2012.png" 1546889162 181954 4c4b37af202c08ea9e046a70e015609a ""
  "figures/SF_new_neighbors.png" 1546889741 295932 33a57082f3a06feb3f01c62064e5b633 ""
  "figures/SF_spatial_neighbors.png" 1546889814 320521 9a373346b6edd6f6ead38563f9b5ba69 ""
  "figures/SF_virtual_paths_2012.png" 1546889217 92312 fcddf8fc61a9161ab17870979ecc9c2a ""
  "figures/assaults_2015_pdp_census.png" 1510547461 8616 7f60d5dce8690eb11b6d748f778bf033 ""
  "figures/assaults_2015_pdp_dyn.png" 1510547513 7174 c90ac4f6ae85ef9c38b0a067ae2c1bb5 ""
  "figures/assaults_2015_pdp_pop.png" 1510548375 8482 6f5a53005ba0215c1d219b4428cfc18e ""
  "figures/assaults_2015_pdp_venues.png" 1510547492 5924 15da5e55f902264db4f3ef7e42c5d136 ""
  "figures/awareness_space.pdf" 1547596287 26037 19d77042f5e37d4e40a403aa7c303cb6 ""
  "figures/baseline.png" 1510532423 338179 9bb294163ed12926374fd397f49e8cfb ""
  "figures/checkins_shops_leg.png" 1510626656 383509 7f205a2c6575216720617862ed047b60 ""
  "figures/dynamics.png" 1522966309 329621 ec3df7dc9ac4507881dcfca0c7c49b15 ""
  "figures/exits_week_avg_leg.png" 1528143971 184158 30eda86d71dc77d7d13b6770ec933367 ""
  "figures/full.png" 1510534708 335838 cebf207b98e7091751d475229e7af14a ""
  "figures/incidents_2014_histogram.pdf" 1549554407 10806 c9acc58215ffa76a19c25f4ea24dec3d ""
  "figures/incidents_2014_transf_histogram.pdf" 1549554403 10865 d9b62facad7b34c158c8657e93f7d004 ""
  "figures/incidents_2015_histogram.pdf" 1549554498 10816 f691250f6902d9d55f21de0941ffadf4 ""
  "figures/incidents_2015_leg.png" 1510626078 379207 41f04944c130fb191ac337327d8fef74 ""
  "figures/incidents_2015_pdp_census.png" 1510546276 7468 029209bda7ae44646b71af665ce38f69 ""
  "figures/incidents_2015_pdp_dyn.png" 1510546292 7658 429e8649f6693a1f43be9be6afd3d1a2 ""
  "figures/incidents_2015_pdp_pop.png" 1510546244 7539 aecbb3a26f82b9ff0d440f4224c9d7a8 ""
  "figures/incidents_2015_pdp_venues.png" 1510547911 5775 3c7c68b689dd5ce6ee334ca38deffa36 ""
  "figures/incidents_2015_transf_histogram.pdf" 1549554502 10884 dfe73cf9a2b430adaf11f667b2a15959 ""
  "figures/larcenies_2015_pdp_census.png" 1510546874 6937 82cc85d830f7925e62831c2d5ffb5071 ""
  "figures/larcenies_2015_pdp_dyn.png" 1510546913 7750 681ffe2e4ed0b2a84b4a320385e94e23 ""
  "figures/larcenies_2015_pdp_pop.png" 1510546861 6701 d7b8cd7987c17da8eab383a67444fe23 ""
  "figures/larcenies_2015_pdp_venues.png" 1510546895 5535 37aed18ed149fcdefe6f9e3cfca3249f ""
  "figures/location_spline.png" 1546895501 92319 f09e468621f3dc057f9382fa95d8340b ""
  "figures/pickups_passengers_week_avg_leg.png" 1510626975 373217 4c0d8b5d0f0a59074b48835cd7fcee83 ""
  "figures/rented_leg.png" 1510626213 382411 85741297608e16c015b6fc2ab838705f ""
  "figures/s(checkins_weekday).png" 1549373080 25237 0f6db55d70bba8610085f73cb2285c46 ""
  "figures/s(hour_weekday).png" 1549372497 19164 7b2615eaee9210ffa62dcd0d716badac ""
  "figures/s(passthroughflow_weekday).png" 1549373105 26066 5cd480b9c5400035b5ffecb3ebe2360f ""
  "figures/s(pastcrime_weekday).png" 1549373055 21103 fe29b5b19d771ee50983975e617a6754 ""
  "figures/sorted_assaults2015_gbr.png" 1522947344 51645 e800fb17c896049abe9eb5a43ace0180 ""
  "figures/sorted_incidents2015_gbr.png" 1522946440 49523 c91f5b1fd7b869175702791ba8b16443 ""
  "figures/sorted_larcenies2015_gbr.png" 1522946957 54978 86b6054d90b0bf881bcfddf6542ec58c ""
  "figures/tract10100_predictors2012.png" 1547582271 40665 c482a6454f8fd1d8d42a864820cd46f5 ""
  "figures/tract11700_predictors2012.png" 1547582261 46010 d0a5148ce1dba9f27e9ccd964dd2cd5a ""
  "figures/tract12800_predictors2012.png" 1547582228 40208 76c762e762731f5c74c7684bcf3cf847 ""
  "figures/venues_food_leg.png" 1510626530 377427 075bc2a83d3eafb5ec0c611e18b1c69f ""
  "figures/weakbaseline_leg.png" 1510532823 344125 f2e873c6976863747efdd99a6edbeb87 ""
  "thesis.aux" 1557083533 67090 eca4857d55947cd93e33a98e47fe32d2 ""
  "thesis.bbl" 1557083165 58687 aa8b05312e1113ed30907b39086b8bc0 "bibtex thesis"
  "thesis.gls" 1557083119 6296 22af73cec5f190dc19300a022bc5052a "cusdep glo gls thesis"
  "thesis.glsdefs" 1549327204 878 46dd806c351d4a9d031f182ceb3d5d61 ""
  "thesis.lof" 1557083533 8887 af3a4f6e8b5623005559f96ee05161b9 ""
  "thesis.lot" 1557083533 4651 df589c329f72773caa6b54315b44fb00 ""
  "thesis.out" 1557083533 7665 10fdc4f0d0958d4c8895152efa4a3fba ""
  "thesis.tex" 1557083516 357063 ed0e418681f7b3195fbe4de1cdd0fff9 ""
  "thesis.toc" 1557083533 11482 4dc5c8686e475402acc22104010ce5b3 ""
  "title_page.tex" 1553943875 1437 9ed0342ab9209c6812a0dc529602c448 ""
  (generated)
  "thesis.pdf"
  "thesis.out"
  "thesis.lof"
  "thesis.ist"
  "thesis.log"
  "thesis.lot"
  "thesis.glo"
  "thesis.toc"
  "thesis.aux"
