PWD /Users/ckadar/Documents/git_repos/thesis_cka
INPUT /usr/local/texlive/2014/texmf.cnf
INPUT /usr/local/texlive/2014/texmf-dist/web2c/texmf.cnf
INPUT /usr/local/texlive/2014/texmf-var/web2c/pdftex/pdflatex.fmt
INPUT title_page.tex
OUTPUT title_page.log
INPUT /usr/local/texlive/2014/texmf-dist/fonts/map/fontname/texfonts.map
INPUT /usr/local/texlive/2014/texmf-dist/fonts/map/fontname/texfonts.map
INPUT /usr/local/texlive/2014/texmf-dist/fonts/tfm/public/cm/cmbx10.tfm
INPUT /usr/local/texlive/2014/texmf-dist/fonts/tfm/public/cm/cmti10.tfm
OUTPUT title_page.pdf
INPUT /usr/local/texlive/2014/texmf-var/fonts/map/pdftex/updmap/pdftex.map
